{
  "appenders": [
    { "type": "console" ,
      "category": "normal-logger"
    },
    {
      "type": "file",
      "filename": "account.log",
      "maxLogSize": 204800000,
      "backups": 3,
      "category": "normal-logger"
    }
  ]
}